\relax 
\providecommand*{\memsetcounter}[2]{}
\@writefile{lof}{\contentsline {figure}{\numberline {1}{\ignorespaces Early stopping of the mini-batch gradient decent algorithm was done by checking if the validation set loss for the two previous epochs had changed more than a set value, in this case \texttt  {eps = 1e-2}, relative to the validation set loss for the current epoch. This setting resulted in an in-sample accuracy of $0.985$ and test-sample accuracy of $0.975$, where the algorithm stopped after the fifth epoch.}}{3}\protected@file@percent }
\memsetcounter{lastsheet}{3}
\memsetcounter{lastpage}{3}
