\relax 
\providecommand*{\memsetcounter}[2]{}
\@writefile{lof}{\contentsline {figure}{\numberline {1}{\ignorespaces Diagram of the 19 state HMM model. Trivial/Heuristic transition probabilities are indicated with \texttt  {1.0} at the relevant transition arrows. The six boxes indicates start, stop and coding states for both left to right coding and reverse coding indicated by \texttt  {C} and \texttt  {R} respectively. State number designation is given in each circle node.}}{2}\protected@file@percent }
\newlabel{fig:hmm model}{{\M@TitleReference {1}{Diagram of the 19 state HMM model. Trivial/Heuristic transition probabilities are indicated with \texttt  {1.0} at the relevant transition arrows. The six boxes indicates start, stop and coding states for both left to right coding and reverse coding indicated by \texttt  {C} and \texttt  {R} respectively. State number designation is given in each circle node.}}{2}}
\memsetcounter{lastsheet}{3}
\memsetcounter{lastpage}{3}
