\relax 
\providecommand*{\memsetcounter}[2]{}
\@writefile{toc}{\contentsline {subsection}{Code}{1}\protected@file@percent }
\@writefile{lof}{\contentsline {figure}{\numberline {1}{\ignorespaces Cost function for binary logistic regression using the following settings: \texttt  {lr = 2}, \texttt  {batch\_size = 124} and \texttt  {epochs = 50}.}}{1}\protected@file@percent }
\newlabel{fig:log_reg_cost_per_epoch}{{\M@TitleReference {1}{Cost function for binary logistic regression using the following settings: \texttt  {lr = 2}, \texttt  {batch\_size = 124} and \texttt  {epochs = 50}.}}{1}}
\@writefile{lot}{\contentsline {table}{\numberline {1}{\ignorespaces Accuracy for binary logistic regression, in the CVR data set.}}{1}\protected@file@percent }
\@writefile{toc}{\contentsline {subsection}{Theory}{2}\protected@file@percent }
\@writefile{toc}{\contentsline {subsubsection}{Running Time}{2}\protected@file@percent }
\@writefile{lot}{\contentsline {table}{\numberline {2}{\ignorespaces Running time}}{2}\protected@file@percent }
\@writefile{toc}{\contentsline {subsubsection}{Sanity Check}{2}\protected@file@percent }
\@writefile{toc}{\contentsline {subsubsection}{Linear Separable Data}{3}\protected@file@percent }
\@writefile{toc}{\contentsline {subsection}{Code}{3}\protected@file@percent }
\@writefile{lof}{\contentsline {figure}{\numberline {2}{\ignorespaces Wine data }}{3}\protected@file@percent }
\newlabel{fig:softmax_wine_cost_per_epoch}{{\M@TitleReference {2}{Wine data }}{3}}
\@writefile{lot}{\contentsline {table}{\numberline {3}{\ignorespaces Accuracy for softmax logistic regression, on the wine data set.}}{3}\protected@file@percent }
\@writefile{lot}{\contentsline {table}{\numberline {4}{\ignorespaces Accuracy for softmax logistic regression, on the digits data set. Even though the absolute accuracy is not the best, the difference between $E_\text  {in}$ and $E_\text  {out}$ is small.}}{3}\protected@file@percent }
\@writefile{lof}{\contentsline {figure}{\numberline {3}{\ignorespaces \texttt  {lr = 0.05}, \texttt  {epochs = 30}, \texttt  {batch\_size = 16}. I tried changing the parameters, but the algorithm does not seem to converge in the same way as on the wine data. }}{4}\protected@file@percent }
\newlabel{fig:softmax_digits_cost_per_epoch}{{\M@TitleReference {3}{\texttt  {lr = 0.05}, \texttt  {epochs = 30}, \texttt  {batch\_size = 16}. I tried changing the parameters, but the algorithm does not seem to converge in the same way as on the wine data. }}{4}}
\@writefile{toc}{\contentsline {subsection}{Theory}{5}\protected@file@percent }
\@writefile{lot}{\contentsline {table}{\numberline {5}{\ignorespaces Running time}}{5}\protected@file@percent }
\memsetcounter{lastsheet}{5}
\memsetcounter{lastpage}{5}
